1,,1,1,Public,trtr,public folder,10.5,2,1,2017-06-13 16:23:39,,,
2,,1,1,Shared,trtr2,shared folder,5.5,1,3,2017-06-13 16:23:39,,,
3,,1,1,Team shared,trtr2,team shared folder,5.5,1,5,2017-06-13 16:23:39,,,
4,,1,1,User,trtr2,team shared folder,15,4,4,2017-06-13 16:23:39,,,
5,,1,1,Trash,trtr2,team shared folder,0,0,2,2017-06-13 16:23:39,,,
6,1,1,1,Images,img,images folder,0,0,0,2017-06-13 16:23:39,,,
7,1,1,1,Videos,videos,videos folder,0,0,0,2017-06-13 16:23:39,,,
8,6,1,1,Gif,gif,gif folder,0,0,0,2017-06-13 16:23:39,,,
9,6,1,1,Png,png,png folder,0,0,0,2017-06-13 16:23:39,,,
10,8,1,1,Animated,animated,gif animados folder,0,0,0,2017-06-13 16:23:39,,,
11,2,1,1,Documents,compartido,folder compartido,0,0,0,2017-06-13 16:23:39,,,
