 <!-- <li v-if="folder_type != 2 && folder_type != 'null'"><a class="btn" @click="showUploadModal()">Upload file</a></li>
			    <li v-if="folder_type == 0 && folder_type != 'null'" ><a class="btn" >Rename</a></li>
			    <li v-if="folder_type == 0 && folder_type != 'null'"><a class="btn" >Copy</a></li>
			    <li v-if="folder_type == 0 && folder_type != 'null'"><a class="btn" >Move</a></li>
			    <li v-if="folder_type == 0 && folder_type != 'null'"><a class="btn" >Delete</a></li>
			    <li v-if="folder_type == 2"><a class="btn" >Empty trash</a></li>
			    <li v-if="folder_type == 'null'"><p class="text-center">No options available</p></li>
			    
			    
			    <li class="divider"></li>
			    <li class="dropdown-header">File options</li> 
				<li v-if="selection.length==1"><a class="btn" @click="algo()">Rename file</a></li>
				<li v-if="selection.length>=1"><a class="btn" @click="algo()">Copy</a></li>
				<li v-if="selection.length>=1"><a class="btn" @click="algo()">Move</a></li>
				<li v-if="selection.length>=1"><a class="btn" @click="algo()">Delete</a></li>
				<li v-if="folder_type == 'null' || selection.length<=0"><p class="text-center">No options available</p></li>

				<li v-if="selection.length>1" class="divider"></li>
				<li v-if="selection.length>1"><a class="btn" @click="clearSelection(father_id)">Clear selection</a></li> -->